%YAML 1.1
%TAG !u! tag:unity3d.com,2011:
--- !u!114 &11400000
MonoBehaviour:
  m_ObjectHideFlags: 0
  m_CorrespondingSourceObject: {fileID: 0}
  m_PrefabInstance: {fileID: 0}
  m_PrefabAsset: {fileID: 0}
  m_GameObject: {fileID: 0}
  m_Enabled: 1
  m_EditorHideFlags: 0
  m_Script: {fileID: 11500000, guid: ec4d4b968f9bfb54bb8a2b30e9a2f956, type: 3}
  m_Name: DeepFry
  m_EditorClassIdentifier: 
  moveDmg: 0
  moveDes: 
  moveStat: 
  moveType: 
  moveEffect: 
  movePow: 0
  moveRange: 0
  moveRangeType: 
  moveStatusType: 
  moveRecoil: 0
  moveHeal: 0
  moveBoost: 
  moveBoostAmt: 0
  moveDecrease: 
  moveDecreaseAmt: 0
  moveModifier: 
  movePen: 
