%YAML 1.1
%TAG !u! tag:unity3d.com,2011:
--- !u!114 &11400000
MonoBehaviour:
  m_ObjectHideFlags: 0
  m_CorrespondingSourceObject: {fileID: 0}
  m_PrefabInstance: {fileID: 0}
  m_PrefabAsset: {fileID: 0}
  m_GameObject: {fileID: 0}
  m_Enabled: 1
  m_EditorHideFlags: 0
  m_Script: {fileID: 11500000, guid: ec4d4b968f9bfb54bb8a2b30e9a2f956, type: 3}
  m_Name: IceSickle
  m_EditorClassIdentifier: 
  moveName: Ice-Sickle
  note: Remmeber to capitalize stuff
  moveDmg: 70
  moveDes: The enemy is attacked with a sickle made out of ice that penetrates armor.
  moveStat: 0
  moveType: 1
  moveEffect: 1
  movePow: 60
  moveRange: 1
  moveRangeType: 0
  moveStatusType: 1
  moveRecoil: 0
  moveHeal: 0
  moveBoostStat: 10
  moveBoostAmt: 0
  moveDecreaseStat: 10
  moveDecreaseAmt: 0
  moveModifier: 0
  movePen: 0.8
  moveHits: 0
